<svg width="100" height="100" viewBox="0 0 100 100" fill="none" xmlns="http://www.w3.org/2000/svg">
<rect width="100" height="100" rx="30" fill="url(#paint0_linear_4_95)"/>
<g opacity="0.25" filter="url(#filter0_f_4_95)">
<rect x="15.0655" y="50" width="68.1223" height="42.5764" rx="21.2882" fill="url(#paint1_radial_4_95)"/>
</g>
<rect x="13" y="12.9999" width="73.7991" height="73.7991" rx="30" fill="url(#paint2_radial_4_95)"/>
<g filter="url(#filter1_i_4_95)">
<path d="M49.9995 30C38.7348 30 30 38.2548 30 49.3995C30 55.2293 32.3899 60.2692 36.2798 63.7491C36.6048 64.0391 36.8048 64.4491 36.8148 64.889L36.9248 68.4489C36.9328 68.7109 37.005 68.9668 37.1351 69.1943C37.2652 69.4218 37.4492 69.6138 37.6709 69.7536C37.8926 69.8933 38.1452 69.9764 38.4066 69.9957C38.6679 70.0149 38.93 69.9697 39.1697 69.8639L43.1396 68.114C43.4746 67.964 43.8546 67.939 44.2096 68.034C46.0346 68.5339 47.9745 68.8039 49.9995 68.8039C61.2641 68.8039 69.9989 60.5492 69.9989 49.4045C69.9989 38.2598 61.2641 30 49.9995 30Z" fill="white"/>
<path d="M37.9898 55.0743L43.8646 45.7546C44.0856 45.4037 44.377 45.1024 44.7203 44.8698C45.0636 44.6372 45.4514 44.4783 45.8592 44.4031C46.267 44.328 46.686 44.3382 47.0896 44.4331C47.4933 44.528 47.8729 44.7056 48.2045 44.9546L52.8794 48.4595C53.0881 48.6157 53.342 48.6998 53.6027 48.6989C53.8634 48.698 54.1167 48.6122 54.3243 48.4545L60.6342 43.6646C61.4741 43.0246 62.5741 44.0346 62.0141 44.9296L56.1343 54.2443C55.9133 54.5952 55.6219 54.8965 55.2786 55.1291C54.9353 55.3617 54.5475 55.5206 54.1397 55.5958C53.7319 55.6709 53.3129 55.6607 52.9093 55.5658C52.5056 55.4709 52.126 55.2933 51.7944 55.0443L47.1195 51.5394C46.9108 51.3832 46.6569 51.2991 46.3962 51.3C46.1355 51.3009 45.8822 51.3867 45.6746 51.5444L39.3647 56.3343C38.5248 56.9743 37.4248 55.9693 37.9898 55.0743Z" fill="url(#paint3_radial_4_95)"/>
</g>
<defs>
<filter id="filter0_f_4_95" x="9.60551" y="44.54" width="79.0423" height="53.4964" filterUnits="userSpaceOnUse" color-interpolation-filters="sRGB">
<feFlood flood-opacity="0" result="BackgroundImageFix"/>
<feBlend mode="normal" in="SourceGraphic" in2="BackgroundImageFix" result="shape"/>
<feGaussianBlur stdDeviation="2.73" result="effect1_foregroundBlur_4_95"/>
</filter>
<filter id="filter1_i_4_95" x="27" y="27" width="45" height="45.5" filterUnits="userSpaceOnUse" color-interpolation-filters="sRGB">
<feFlood flood-opacity="0" result="BackgroundImageFix"/>
<feBlend mode="normal" in="SourceGraphic" in2="BackgroundImageFix" result="shape"/>
<feColorMatrix in="SourceAlpha" type="matrix" values="0 0 0 0 0 0 0 0 0 0 0 0 0 0 0 0 0 0 127 0" result="hardAlpha"/>
<feOffset dy="0.5"/>
<feGaussianBlur stdDeviation="1.25"/>
<feComposite in2="hardAlpha" operator="arithmetic" k2="-1" k3="1"/>
<feColorMatrix type="matrix" values="0 0 0 0 0 0 0 0 0 0 0 0 0 0 0 0 0 0 0.1 0"/>
<feBlend mode="normal" in2="shape" result="effect1_innerShadow_4_95"/>
</filter>
<linearGradient id="paint0_linear_4_95" x1="8.40611" y1="6.55022" x2="82.6419" y2="100" gradientUnits="userSpaceOnUse">
<stop stop-color="#FBFBFC"/>
<stop offset="1" stop-color="#DBDDE8"/>
</linearGradient>
<radialGradient id="paint1_radial_4_95" cx="0" cy="0" r="1" gradientUnits="userSpaceOnUse" gradientTransform="translate(26.476 92.5753) scale(74.9345 46.8328)">
<stop stop-color="#0099FF"/>
<stop offset="0.6" stop-color="#A033FF"/>
<stop offset="0.9" stop-color="#FF5280"/>
<stop offset="1" stop-color="#FF7061"/>
</radialGradient>
<radialGradient id="paint2_radial_4_95" cx="0" cy="0" r="1" gradientUnits="userSpaceOnUse" gradientTransform="translate(25.3614 86.797) scale(81.179 81.1768)">
<stop stop-color="#0099FF"/>
<stop offset="0.6" stop-color="#A033FF"/>
<stop offset="0.9" stop-color="#FF5280"/>
<stop offset="1" stop-color="#FF7061"/>
</radialGradient>
<radialGradient id="paint3_radial_4_95" cx="0" cy="0" r="1" gradientUnits="userSpaceOnUse" gradientTransform="translate(36.6998 69.9989) scale(43.9988 43.9988)">
<stop stop-color="#0099FF"/>
<stop offset="0.6" stop-color="#A033FF"/>
<stop offset="0.9" stop-color="#FF5280"/>
<stop offset="1" stop-color="#FF7061"/>
</radialGradient>
</defs>
</svg>
