<svg width="57" height="59" viewBox="0 0 57 59" fill="none" xmlns="http://www.w3.org/2000/svg">
<rect width="57" height="57" rx="14.9275" fill="url(#paint0_linear_4_2301)"/>
<g opacity="0.25" filter="url(#filter0_f_4_2301)">
<rect x="8.5874" y="28.5" width="38.8297" height="24.2686" rx="12.1343" fill="url(#paint1_linear_4_2301)"/>
</g>
<rect x="7.40991" y="7.40994" width="42.0655" height="42.0655" rx="14.9275" fill="url(#paint2_linear_4_2301)"/>
<g clip-path="url(#clip0_4_2301)" filter="url(#filter1_i_4_2301)">
<g filter="url(#filter2_i_4_2301)">
<path d="M36.6098 40.3676C38.3339 39.7015 39.6969 38.3385 40.363 36.6144C40.6783 35.7977 40.899 34.866 40.9589 33.503C40.9731 33.1837 40.9842 32.9157 40.9944 32.6469V23.5403C40.9873 23.3503 40.9794 23.1525 40.9692 22.9302C40.9093 21.5672 40.6886 20.6307 40.3732 19.8187C40.0477 18.9571 39.5463 18.1853 38.8904 17.5444C38.2487 16.8925 37.4723 16.3864 36.6201 16.0664C35.8034 15.751 34.8716 15.5303 33.5086 15.4704C32.1354 15.405 31.6995 15.39 28.2175 15.39C24.7355 15.39 24.2988 15.405 22.9311 15.4649C21.5681 15.5248 20.6316 15.7455 19.8196 16.0609C18.958 16.3864 18.1863 16.8878 17.5446 17.5444C16.8934 18.1861 16.3873 18.9626 16.0665 19.814C15.7512 20.6307 15.5305 21.5625 15.4705 22.9254C15.4051 24.2987 15.3901 24.7346 15.3901 28.2174C15.3901 31.7001 15.4051 32.1361 15.465 33.5038C15.5249 34.8668 15.7457 35.8041 16.0618 36.6152C16.3873 37.4768 16.8934 38.2486 17.5446 38.8903C18.1863 39.5414 18.9628 40.0483 19.8149 40.3684C20.6316 40.6837 21.5634 40.9044 22.9264 40.9643C24.2941 41.025 24.73 41.04 28.2128 41.04C31.6955 41.04 32.1307 41.025 33.4992 40.9643C34.8622 40.9044 35.7987 40.6837 36.6106 40.3684L36.6098 40.3676ZM28.2222 38.7342C24.7994 38.7342 24.3887 38.7192 23.0407 38.6593C21.7881 38.6041 21.1117 38.3936 20.6608 38.2186C20.105 38.0129 19.5989 37.6873 19.1874 37.2616C18.7617 36.8454 18.4354 36.3448 18.2304 35.7883C18.0554 35.3374 17.8449 34.6555 17.7897 33.4084C17.7298 32.0556 17.7149 31.6497 17.7149 28.2268C17.7149 24.804 17.7298 24.3933 17.7897 23.0461C17.8449 21.7934 18.0554 21.1171 18.2304 20.6662C18.4362 20.1096 18.7617 19.6035 19.1929 19.1928C19.6084 18.7671 20.1097 18.4415 20.6655 18.2358C21.1164 18.0608 21.7983 17.8503 23.0454 17.7951C24.3981 17.7352 24.8041 17.7202 28.2262 17.7202C31.6482 17.7202 32.0597 17.7352 33.4077 17.7951C34.6604 17.8503 35.3367 18.0608 35.7876 18.2358C36.3434 18.4415 36.8495 18.7671 37.2602 19.1928C37.6859 19.609 38.0122 20.1096 38.2172 20.6662C38.3922 21.1171 38.6027 21.7982 38.6579 23.0461C38.7178 24.3988 38.7328 24.8048 38.7328 28.2268C38.7328 31.6489 38.7178 32.0501 38.6579 33.4029C38.6027 34.6555 38.3922 35.3319 38.2172 35.7828C37.786 36.9006 36.8992 37.7874 35.7821 38.2179C35.3312 38.3929 34.6501 38.6033 33.4022 38.6585C32.0495 38.7184 31.6435 38.7334 28.2214 38.7334L28.2222 38.7342Z" fill="white"/>
<path d="M28.2174 21.627C24.5794 21.627 21.6279 24.5784 21.6279 28.2165C21.6279 31.8545 24.5794 34.806 28.2174 34.806C31.8555 34.806 34.8061 31.8545 34.8061 28.2165C34.8061 24.5784 31.8547 21.627 28.2174 21.627V21.627ZM28.2174 32.4899C25.8572 32.4899 23.9432 30.5759 23.9432 28.2157C23.9432 25.8555 25.8572 23.9415 28.2174 23.9415C30.5776 23.9415 32.4916 25.8555 32.4916 28.2157C32.4916 30.5759 30.5776 32.4899 28.2174 32.4899Z" fill="white"/>
<path d="M36.6051 21.3669C36.6051 20.5171 35.9161 19.8289 35.0663 19.8289C34.2165 19.8289 33.5283 20.5179 33.5283 21.3669C33.5283 22.2159 34.2173 22.9049 35.0663 22.9049C35.9153 22.9049 36.6051 22.2167 36.6051 21.3669Z" fill="white"/>
</g>
</g>
<defs>
<filter id="filter0_f_4_2301" x="3.1274" y="23.04" width="49.7496" height="35.1886" filterUnits="userSpaceOnUse" color-interpolation-filters="sRGB">
<feFlood flood-opacity="0" result="BackgroundImageFix"/>
<feBlend mode="normal" in="SourceGraphic" in2="BackgroundImageFix" result="shape"/>
<feGaussianBlur stdDeviation="2.73" result="effect1_foregroundBlur_4_2301"/>
</filter>
<filter id="filter1_i_4_2301" x="15.3901" y="15.39" width="25.6499" height="25.8988" filterUnits="userSpaceOnUse" color-interpolation-filters="sRGB">
<feFlood flood-opacity="0" result="BackgroundImageFix"/>
<feBlend mode="normal" in="SourceGraphic" in2="BackgroundImageFix" result="shape"/>
<feColorMatrix in="SourceAlpha" type="matrix" values="0 0 0 0 0 0 0 0 0 0 0 0 0 0 0 0 0 0 127 0" result="hardAlpha"/>
<feOffset dy="0.248791"/>
<feGaussianBlur stdDeviation="0.621977"/>
<feComposite in2="hardAlpha" operator="arithmetic" k2="-1" k3="1"/>
<feColorMatrix type="matrix" values="0 0 0 0 0 0 0 0 0 0 0 0 0 0 0 0 0 0 0.2 0"/>
<feBlend mode="normal" in2="shape" result="effect1_innerShadow_4_2301"/>
</filter>
<filter id="filter2_i_4_2301" x="15.3901" y="15.39" width="25.6042" height="26.15" filterUnits="userSpaceOnUse" color-interpolation-filters="sRGB">
<feFlood flood-opacity="0" result="BackgroundImageFix"/>
<feBlend mode="normal" in="SourceGraphic" in2="BackgroundImageFix" result="shape"/>
<feColorMatrix in="SourceAlpha" type="matrix" values="0 0 0 0 0 0 0 0 0 0 0 0 0 0 0 0 0 0 127 0" result="hardAlpha"/>
<feOffset dy="0.5"/>
<feGaussianBlur stdDeviation="1.25"/>
<feComposite in2="hardAlpha" operator="arithmetic" k2="-1" k3="1"/>
<feColorMatrix type="matrix" values="0 0 0 0 0 0 0 0 0 0 0 0 0 0 0 0 0 0 0.1 0"/>
<feBlend mode="normal" in2="shape" result="effect1_innerShadow_4_2301"/>
</filter>
<linearGradient id="paint0_linear_4_2301" x1="4.79148" y1="3.73362" x2="47.1059" y2="57" gradientUnits="userSpaceOnUse">
<stop stop-color="#FBFBFC"/>
<stop offset="1" stop-color="#DBDDE8"/>
</linearGradient>
<linearGradient id="paint1_linear_4_2301" x1="28.0022" y1="27.7438" x2="28.0022" y2="54.0404" gradientUnits="userSpaceOnUse">
<stop stop-color="#FCA759"/>
<stop offset="0.19" stop-color="#E82D56"/>
<stop offset="0.74" stop-color="#A22DB4"/>
<stop offset="1" stop-color="#643DCE"/>
</linearGradient>
<linearGradient id="paint2_linear_4_2301" x1="28.4427" y1="6.09923" x2="28.4427" y2="51.68" gradientUnits="userSpaceOnUse">
<stop stop-color="#FCA759"/>
<stop offset="0.19" stop-color="#E82D56"/>
<stop offset="0.74" stop-color="#A22DB4"/>
<stop offset="1" stop-color="#643DCE"/>
</linearGradient>
<clipPath id="clip0_4_2301">
<rect width="25.65" height="25.65" fill="white" transform="translate(15.3901 15.39)"/>
</clipPath>
</defs>
</svg>
